Lab3
…
#2. choosing a variable: 21 year old females
df.vars <- load_variables(2020, "acs5", cache = T)
df.vars

## # A tibble: 27,850 × 4
##    name        label                                    concept        geography
##    <chr>       <chr>                                    <chr>          <chr>    
##  1 B01001A_001 Estimate!!Total:                         SEX BY AGE (W… tract    
##  2 B01001A_002 Estimate!!Total:!!Male:                  SEX BY AGE (W… tract    
##  3 B01001A_003 Estimate!!Total:!!Male:!!Under 5 years   SEX BY AGE (W… tract    
##  4 B01001A_004 Estimate!!Total:!!Male:!!5 to 9 years    SEX BY AGE (W… tract    
##  5 B01001A_005 Estimate!!Total:!!Male:!!10 to 14 years  SEX BY AGE (W… tract    
##  6 B01001A_006 Estimate!!Total:!!Male:!!15 to 17 years  SEX BY AGE (W… tract    
##  7 B01001A_007 Estimate!!Total:!!Male:!!18 and 19 years SEX BY AGE (W… tract    
##  8 B01001A_008 Estimate!!Total:!!Male:!!20 to 24 years  SEX BY AGE (W… tract    
##  9 B01001A_009 Estimate!!Total:!!Male:!!25 to 29 years  SEX BY AGE (W… tract    
## 10 B01001A_010 Estimate!!Total:!!Male:!!30 to 34 years  SEX BY AGE (W… tract    
## # ℹ 27,840 more rows
…
